  	  	  	2 	  	  	  	  	6
  	7 	8 	  	  	3 	  	  	 
1 	  	  	  	7 	  	  	4 	 
  	2 	3 	  	  	  	  	  	 
4 	  	  	5 	  	8 	  	  	2
  	  	  	  	  	  	4 	  	 
  	1 	  	  	  	  	  	  	9
  	  	  	6 	1 	  	5 	2 	 
5 	  	  	  	  	  	  	6 	 
