3 	5 	4 	2 	9 	1 	8 	7 	6
2 	7 	8 	4 	6 	3 	9 	1 	5
1 	9 	6 	8 	7 	5 	2 	4 	3
9 	2 	3 	1 	4 	7 	6 	5 	8
4 	6 	1 	5 	3 	8 	7 	9 	2
7 	8 	5 	9 	2 	6 	4 	3 	1
6 	1 	2 	7 	5 	4 	3 	8 	9
8 	3 	7 	6 	1 	9 	5 	2 	4
5 	4 	9 	3 	8 	2 	1 	6 	7
