  	  	  	  	  	  	8 	  	 
  	  	  	5 	  	9 	  	4 	7
  	  	7 	8 	4 	3 	  	5 	 
  	8 	1 	6 	  	5 	2 	3 	 
  	  	4 	  	  	  	5 	  	 
  	6 	5 	3 	  	4 	1 	7 	 
5 	  	  	2 	1 	7 	9 	  	 
  	7 	2 	9 	  	6 	  	  	 
  	3 	  	  	  	  	  	  	 
